253.1999999999999886313162,1.468730666060003686723689,0.2288689352783659092249735,0.003581746578729227969972726,0.5588338873866905975873465,0.4399935263432681042949923,-0.4266715310537207428431827,-0.5586267427583554434633584,0,0,0,0,0,0,0,0,0
252.25,1.462695190186966032186433,0.2313819062275316584820217,-0.01145356483797418944980961,0.553589613513380318643442,0.4469941603691885978477671,-0.4328482006576824248078594,-0.5535147172698131612378347,0,0,0,0,0,0,0,0,0
251.3509999999999990905053,1.457581212402708992215139,0.2339959482976382010299687,-0.02770019403194484697294797,0.5488840240981393003849576,0.4530996282190237756104523,-0.438500501377953877391036,-0.5487689534610059594044174,0,0,0,0,0,0,0,0,0
251.0999999999999943156581,1.455084142865129104293942,0.2333281759484485406996868,-0.02863865485479238914834355,0.5473333636860978623772667,0.4548334457764790506040242,-0.4402521510221577005772531,-0.5474787550712385542084348,0,0,0,0,0,0,0,0,0
250.2009999999999934061634,1.448424252754218377603479,0.2343408418573378615423763,-0.04189692158657676301913853,0.542717938761830498428651,0.4605508010710563371326032,-0.4458015072275336998508521,-0.5427829670219691537980111,0,0,0,0,0,0,0,0,0
249.7009999999999934061634,1.447276799416979953250006,0.233926388913156479976152,-0.04765850294067186521118629,0.5398336128799174904457914,0.4637999917603281563316386,-0.4489394147701694093299807,-0.5403005973005646778162259,0,0,0,0,0,0,0,0,0
249.1500000000000056843419,1.444405829945794250690483,0.2350526382528325686216419,-0.05309059771440255426355748,0.5368606015101331507821669,0.4674737408114278403026276,-0.4523003765426651390235691,-0.5372846059945564078930147,0,0,0,0,0,0,0,0,0
248.1500000000000056843419,1.439721947804299295725627,0.2376903804710308876213531,-0.06076442883524263427474921,0.5317520850467980508824439,0.4737534792936798355711403,-0.4578467675169251571709594,-0.5321413023589344204467011,0,0,0,0,0,0,0,0,0
247.1999999999999886313162,1.437184678513160562829398,0.2390442815928891517884836,-0.06888143390127715592896607,0.5268956218581920536436769,0.4793338633608542620478943,-0.463092198004743271777528,-0.5274153471248397284654175,0,0,0,0,0,0,0,0,0
246.8499999999999943156581,1.434735673714600423522825,0.2381905767081543556784595,-0.07383623763101920811635637,0.5250895820498487909233631,0.4813067030940773038949487,-0.4650369091983941327583807,-0.525706164501274386680052,0,0,0,0,0,0,0,0,0
246.2510000000000047748472,1.440984540487947995757168,0.243585274159336256927233,-0.09204925453264559132016132,0.5214252009733095771792932,0.4860654278087629953652993,-0.4688547370452820217678891,-0.52156820405500725623682,0,0,0,0,0,0,0,0,0
246.0500000000000113686838,1.448273849991009054605229,0.245341152023142966553948,-0.1022997444643817810394637,0.520289558722528355794168,0.4874389139152693894985191,-0.4700607419560662303403831,-0.5203330684517583071269087,0,0,0,0,0,0,0,0,0
245.8499999999999943156581,1.452693078428823669767667,0.2484735841828043523271674,-0.1130334557337475120952774,0.5193654504784911418724391,0.4888508500964867664606572,-0.4710281176593142937747416,-0.5190549348743037638698183,0,0,0,0,0,0,0,0,0
245.1999999999999886313162,1.473049498411527657992792,0.2519495696913713889131259,-0.1401025317624781663106148,0.5147304392673925921286582,0.4939039127000279805201899,-0.4754182546419214450139634,-0.5148690085059629550912064,0,0,0,0,0,0,0,0,0
245.0500000000000113686838,1.478640854570774543219613,0.2530659542200078826468257,-0.1457944596521015823142875,0.5137635491883395522094702,0.4950213783369069586726141,-0.4766966138955144871580671,-0.5135779312975782273653635,0,0,0,0,0,0,0,0,0
244.9010000000000104591891,1.483024023388492818043005,0.2544458683549772892718011,-0.1546227422307518972743878,0.51286824715773449145928,0.4960920961656264949191097,-0.4774168111185849161515193,-0.5127697176974760351342297,0,0,0,0,0,0,0,0,0
244.75,1.487141849611908650530268,0.2548562006248709099764937,-0.1647842574787662939250765,0.512069449570606960442376,0.4969050530029561207889799,-0.4782897285628817662939127,-0.511966758810763145071121,0,0,0,0,0,0,0,0,0
244.5999999999999943156581,1.492586257971578289627246,0.2570184136528433915813707,-0.1713011690496709649167428,0.511127031076405669018925,0.4982090930345520751743038,-0.4792050515201194405001672,-0.5107835595824909979967288,0,0,0,0,0,0,0,0,0
244.5,1.494919838525068822576714,0.257155860939191405201143,-0.1776872118443030279522077,0.5105172714196575256551114,0.498817583061048785975089,-0.4797871298937962381003786,-0.5102525330070817322081211,0,0,0,0,0,0,0,0,0
244.3000000000000113686838,1.501788779119272110307293,0.2595306213922652371905997,-0.1861967772823492350831032,0.5091604201889656788893035,0.5005128239473419782257224,-0.4812049677786410795121697,-0.5086103401845799565350603,0,0,0,0,0,0,0,0,0
244.0500000000000113686838,1.508756343643531616649511,0.2611440965139480985257592,-0.1985850086597777397479092,0.5073836579074582076032129,0.5024351535393334344803407,-0.4828740944374413923689815,-0.5069057349045812399523925,0,0,0,0,0,0,0,0,0
243.75,1.516699038664282461752464,0.2604909860690525214010904,-0.2122584279355670400235567,0.5049961712671128255536246,0.5046895664857607988196264,-0.4851789833462743506409254,-0.5048453687127162359260524,0,0,0,0,0,0,0,0,0
243.5500000000000113686838,1.524968852918535677787304,0.2623721598252339304302438,-0.2181894929014737138928126,0.5032217094594590989231619,0.5066405059898414497965291,-0.486874612698516173736607,-0.5030273523779184019488753,0,0,0,0,0,0,0,0,0
243.1500000000000056843419,1.534850796976703790619467,0.261138810233037088615049,-0.225416224221653971326873,0.4991097620767389053675345,0.5103869579550731616635062,-0.490744833754106157819308,-0.4995639895928993268192642,0,0,0,0,0,0,0,0,0
242.9499999999999886313162,1.696956381725036155927455,0.1701128300827879913370566,-0.1327181156761158553614166,0.5460154929507504695251896,0.4623940045260945819194376,-0.4569893859542198955026038,-0.5284123177860180486931085,0,0,0,0,0,0,0,0,0
242.6500000000000056843419,1.735096517105193525409845,0.1683846737034859486481508,-0.1367704074360058252857186,0.54158323492019389000518,0.463715173932760238439954,-0.4483332984607723559200565,-0.5391225141433818590641636,0,0,0,0,0,0,0,0,0
241.6999999999999886313162,1.829040103151552631999266,0.1332900570282308239100644,0.0005784763952149940546831886,0.5085132613945018142942445,0.4910474934211868092148734,-0.4877737566904844501713967,-0.51221417316555828413982,0,0,0,0,0,0,0,0,0
241.4499999999999886313162,1.72918094331443961131356,0.1723078401597456510430106,-0.148410141438955117676457,0.5393189646416682858642844,0.4722387555663565827934747,-0.4657473287467484013291141,-0.5188497439873788197317594,0,0,0,0,0,0,0,0,0
241.1999999999999886313162,1.724031913806586047144265,0.1706027641508788550428477,-0.1366872390660227587488862,0.5317900411777031211002509,0.47827420186642471966465,-0.4732056093117500417122301,-0.5143243940236726929882138,0,0,0,0,0,0,0,0,0
240.9499999999999886313162,1.72179169885856908628341,0.1687573280723306812234341,-0.132873003285696816844208,0.5282842759112998942683248,0.4814288962677844563309293,-0.476181698146982190777976,-0.5122430288909035622779697,0,0,0,0,0,0,0,0,0
240.6500000000000056843419,1.746565844041270576525449,0.171066258770616541617926,-0.1428740653893162682042117,0.5304770629744803844829448,0.478668446237121569808437,-0.4718891943546280609567134,-0.5165183413595553219010981,0,0,0,0,0,0,0,0,0
240.4000000000000056843419,1.752003895305498826218127,0.1769365168616810757296065,-0.1546640539527918412066043,0.5350074371906236025964176,0.4795921046572971802035568,-0.4696972649455590231859503,-0.5129746006095363686227984,0,0,0,0,0,0,0,0,0
239.8499999999999943156581,1.748688704637131774433101,0.1756294219834433345539537,-0.1445778417769916224244753,0.5248962019405777335023799,0.4909977030043827794791866,-0.4753729135438237718425114,-0.5073715067518927979151044,0,0,0,0,0,0,0,0,0
239.5509999999999877218215,1.752821495493100512064188,0.1753477482370831008751111,-0.145650176132359393532667,0.5219361557433872533806607,0.4929849896321982227753722,-0.4800943604194484737313076,-0.5040415494563174059194921,0,0,0,0,0,0,0,0,0
238.7009999999999934061634,1.780780514122774604857113,0.1710144948230531147803646,-0.1625687252173389496512357,0.5165395289315309890199046,0.4959900183965681441655704,-0.4890968989502430530613708,-0.4979608842185931361079554,0,0,0,0,0,0,0,0,0
238.5,1.77221392594640048123722,0.172441179900439722771921,-0.1515795719030676169669647,0.5087046176190236357328445,0.5021636320050175683604721,-0.4994576060983789700387092,-0.4894827913348622772105045,0,0,0,0,0,0,0,0,0
238.3009999999999877218215,1.779860005890442797849005,0.1679239366909400232863447,-0.1529935945279842224309164,0.5042586413585816718097021,0.5047749033541768515220838,-0.5031746129256673416563217,-0.4875867546449282885490106,0,0,0,0,0,0,0,0,0
238.0999999999999943156581,1.790498631054289191411044,0.162911564291928573355861,-0.14918117418082146863334,-0.4989518084071231096565668,-0.5085669259190552793370443,0.508629529739311303515592,0.4834281593589651038200827,0,0,0,0,0,0,0,0,0
237.9010000000000104591891,1.822601166900544411575424,0.1491930635229068435876343,-0.1486726297497972248962128,0.4925663805848809473353356,0.5089639952550447654644472,-0.5080524180727369332188914,-0.4901191113236290086696556,0,0,0,0,0,0,0,0,0
237.5500000000000113686838,1.845368021665441560230647,0.1460352462838871989703193,-0.1426675985449908368174476,0.4857560772339085675142201,0.5158238680503764994611515,-0.5121217787795495635094767,-0.4854874481059298640950317,0,0,0,0,0,0,0,0,0
237.3009999999999877218215,1.873805086745261805347695,0.1367456651914283338733469,-0.1000576440077471929157582,-0.4732941852624705236785019,-0.5262242688233425003119237,0.5266303689087113992783884,0.4708939553666116606400749,0,0,0,0,0,0,0,0,0
237.1510000000000104591891,1.914926791031573261037124,0.1296179613917183004456746,-0.0600989169185236482562118,-0.4666634773914322686927392,-0.5307401093241201905925664,0.5338378362464580861868058,0.4642814910270422479321439,0,0,0,0,0,0,0,0,0
236.9499999999999886313162,1.942233361539896341341205,0.1315371605621240558292584,-0.05521459744345744158344758,-0.4675109379792685149190845,-0.5331252600365546934213512,0.5346723533476717138412937,0.4597134493529864140981545,0,0,0,0,0,0,0,0,0
236.75,1.945088764153749982810382,0.1342911516509989744427855,-0.048822520462635674021179,-0.4604063226478234405192325,-0.5359742807075886794621056,0.5393194885782831571319207,0.4581398061695072243537652,0,0,0,0,0,0,0,0,0
236.5509999999999877218215,1.924901574517054347879252,0.1334534136684366045777494,-0.05677494270425229028198544,-0.4545382994598424208909648,-0.5411562257517666951756041,0.5461551988963375681152002,0.449732552408008356970015,0,0,0,0,0,0,0,0,0
236.3499999999999943156581,1.983644469699533674500458,0.1270589442079993469647547,-0.02978212714289907303566451,-0.449851794871513888107728,-0.5452586886455683679031381,0.5462932801068915988906838,0.4493216715483694390087521,0,0,0,0,0,0,0,0,0
236.0509999999999877218215,1.731769283433716610787201,0.3296227207421613680793371,0.08144631301486993102400902,0.4406435888142312684578883,0.6208477462758600351477867,-0.5852393680442333767643959,-0.2790630523017693653820004,0,0,0,0,0,0,0,0,0
235.7009999999999934061634,1.180145535297842496191834,0.1228622877746059494086239,0.7254378742168215987717872,-0.09670184634312803395594926,-0.6907402152022681374177182,0.7067835315225070580424926,0.1182529815664346145576147,0,0,0,0,0,0,0,0,0
235.3509999999999990905053,1.164845254531181595325506,0.1650546526499736266213603,0.2053940012171612261582254,-0.09243900286799390519920649,-0.6941967796681381974721603,0.7095717953530736865630502,0.07780584804344678473420061,0,0,0,0,0,0,0,0,0
234.6500000000000056843419,1.220506134552829191619594,0.1642546679849774260429029,0.1656935214327676653134347,-0.09136555991301636980850276,-0.6988042610774145568797167,0.7058093259168136679448935,0.07182009073255295195092884,0,0,0,0,0,0,0,0,0
234.2009999999999934061634,1.343162424449823699745821,0.1505310506505673495691866,0.161739016497770338176565,0.1104552938771523745709047,0.7010553311776596130400208,-0.6955097946127773989033471,-0.1121925629284910158611765,0,0,0,0,0,0,0,0,0
233.2510000000000047748472,1.606083199427018382010601,0.1381374365289304573245488,0.1048418271380691102478977,0.142874236545259852837475,0.6917733851191532057356426,-0.6891279974916343364910176,-0.1616760619605467352855044,0,0,0,0,0,0,0,0,0
232.8009999999999877218215,1.772142038122749507778053,0.1558972200081920056469187,0.06307762438048766795439803,0.1776904177494380288049314,0.6862002508253909338620247,-0.6843545135736976980922464,-0.1709216605171125502593554,0,0,0,0,0,0,0,0,0
232.3499999999999943156581,1.810741135030664583638327,0.1559424365109436383391994,0.04505325886641207977501011,-0.1441153526743758905848125,-0.6921410468119102432638101,0.6930252757907251481839239,0.1410230518556548628961167,0,0,0,0,0,0,0,0,0
231.8499999999999943156581,1.97987470425890799141655,0.1783289173606201483135436,0.2026954184520486923481997,0.09483665557872832108099459,0.7041670128808807938014525,-0.6981336953272898604438979,-0.08811450711355661713497511,0,0,0,0,0,0,0,0,0
231.3499999999999943156581,2.060246015848598677422387,0.1833121875110337861691789,0.1547362190611980270471548,0.07600933698089551437959699,0.7087852918367431032109494,-0.6978920131763032275173941,-0.06922956147779944779951933,0,0,0,0,0,0,0,0,0
230.3509999999999990905053,2.196943889095473334549524,0.173744795301452509272977,0.04932370232331556580973597,-0.07768652203182467574915648,-0.7024278259803768964530946,0.7039279379148718485126324,0.07103106506374989859153857,0,0,0,0,0,0,0,0,0
229.1500000000000056843419,2.291157406109658012383079,0.1674741587685381616346092,-0.00454349800423714533792463,-0.09896958338948774747123593,-0.6936733836291333332724207,0.7072062792736222291978265,0.09424189692196537071477991,0,0,0,0,0,0,0,0,0
228.5010000000000047748472,2.309493720369657943081165,0.1660047178970276149367891,-0.01468626586568475000937894,-0.09991664843046213495547647,-0.6935403293013265857425154,0.7074593099787392924682194,0.09230270015357251722765142,0,0,0,0,0,0,0,0,0
227.1500000000000056843419,2.289303857160954080995907,0.1646083025833303126184148,-0.03007885304625276812195978,-0.06155113116346101753695308,-0.6994315487702180700324561,0.7098756819974978427012502,0.05552934638023293567599126,0,0,0,0,0,0,0,0,0
225.2009999999999934061634,2.268068679829284839399861,0.1578072706522040957732855,-0.06761623690517695739465864,-0.007050755834232064200861601,-0.7018888347775583680387967,0.7122364565162029315104064,0.004644131514029016527533855,0,0,0,0,0,0,0,0,0
219.4010000000000104591891,2.261518194364616984870509,0.1578443742233274771358253,-0.1138999632623714369783485,0.05712500310604828185345738,-0.7011635542418865885139212,0.7079779182897343314806449,-0.0622387034701927799318355,0,0,0,0,0,0,0,0,0
218.6999999999999886313162,2.256473854985857396826532,0.1566267999767496643670484,-0.1191150547557958128130906,0.06491091932534270858567993,-0.7014039624297723207746458,0.7065242628595044260819691,-0.06813623074612575047925844,0,0,0,0,0,0,0,0,0
216.8509999999999990905053,2.252167622553190362566511,0.1598662554389082834926938,-0.1276322196182835266853317,0.06420548143660574635926963,-0.6993645987611191161548163,0.7081603941437601967834325,-0.0726338296568533603458917,0,0,0,0,0,0,0,0,0
216.4000000000000056843419,2.247137880297287004793816,0.1560118774963123733368064,-0.1281494005448638728861255,0.06787618182778928921372597,-0.7006380968190715208265829,0.7067954250696408813325888,-0.07028011341820163127014354,0,0,0,0,0,0,0,0,0
215.3009999999999877218215,2.242595209023871660747318,0.156202746291882965667952,-0.1222236976465840285754894,0.05644441431408697695815135,-0.7011104318549880032307442,0.708472744447198654604847,-0.05765914450934356977329642,0,0,0,0,0,0,0,0,0
214.8000000000000113686838,2.228777093572056777759371,0.1574279026955493210326864,-0.1248733722806197876664669,0.05847451675861323888705456,-0.7006169243719679862181238,0.7085204864590807227742175,-0.0609539298194362866301077,0,0,0,0,0,0,0,0,0
209.75,1.482938955465560759705568,0.1615231636359533151647838,-0.4408970282382127514608783,-0.294493842693342444682969,0.6485745998876221163342848,-0.604922543696428061110737,0.3559396987341253981718125,0,0,0,0,0,0,0,0,0
208.6999999999999886313162,1.525909726113997777474651,0.1598902120535952153801418,-0.4031169198836010991726653,-0.3096730801169015889762193,0.6476298287424155919467239,-0.601944372545646255723284,0.3497729815143053588855082,0,0,0,0,0,0,0,0,0
208,1.506360590294160584079464,0.092727195700976594583409,-0.4392081307204790396880867,-0.4408296693300473578780441,0.6123800018449471194159628,-0.5813375170393271229585253,0.3044776451871772371404745,0,0,0,0,0,0,0,0,0
207.6510000000000104591891,1.525738989149682200974212,0.1559453040022840131229032,-0.4692457427934241809275306,-0.3758598597022609899553913,0.6112338856493242378320474,-0.5900636797830715041257577,0.3700639840595442153770023,0,0,0,0,0,0,0,0,0
207.25,1.53862977815251555924192,0.1444660344747284996813619,-0.4542916056575788119609172,-0.3850080677470102408221919,0.6155479619704941063318415,-0.5872085573676767422668377,0.3578485485831847112692117,0,0,0,0,0,0,0,0,0
206.5999999999999943156581,1.672231291823707666210908,0.159786850725144091711627,-0.3818052321444309615827706,-0.3164213982424058380082954,0.6342601498482459687622281,-0.6119887084316829595209697,0.3508010382980729646718032,0,0,0,0,0,0,0,0,0
206.25,1.806855549408784789022775,0.2544074187164142575312553,-0.378330485630074431213643,-0.2060623368060235660603752,0.6317034336278893880134433,-0.6217267069392448108899885,0.4146625042503805924631877,0,0,0,0,0,0,0,0,0
205.8499999999999943156581,1.698456151612791842353545,0.1150718470718017361065222,-0.4563988302350432402221259,-0.4003158469103893501994662,0.6084088757815043768673036,-0.5681816208371893717199441,0.3830867971015211037588699,0,0,0,0,0,0,0,0,0
205.4499999999999886313162,1.83335913525860316752869,0.06016785599549784313566647,-0.3240859456227742629863542,-0.4124121042444715001806799,0.6317095482720058718939526,-0.5959324927251122838711694,0.2751794966065819747491616,0,0,0,0,0,0,0,0,0
205.0999999999999943156581,1.842519627416734362412853,0.1051658641761255008617582,-0.3476683603361714336443811,-0.3970472147226581371981524,0.6159476561866618071761081,-0.5923842427836552015918414,0.3347280661589702721592232,0,0,0,0,0,0,0,0,0
204.75,1.88621926789769478460812,0.2355862262400671980344669,-0.3913521977169736043578041,0.2910437883008911152948883,-0.5904571249186483239412837,0.5963510163750098680424117,-0.4593684462891888808933061,0,0,0,0,0,0,0,0,0
204.1009999999999990905053,2.120923078519483695458803,0.1903720242636235404631861,-0.1864346973176196353705336,0.2549954805049473582911901,-0.6403336631427060110510752,0.6487660340559611160671238,-0.3225720664590412400940522,0,0,0,0,0,0,0,0,0
203.8000000000000113686838,2.078217576810507338791467,0.1317562173029001026947071,-0.2288546606775438141401224,-0.3360462766396895561982205,0.6327575020232096836281244,-0.6114317035385360421528844,0.3359198151308402380266216,0,0,0,0,0,0,0,0,0
203.1500000000000056843419,2.097576809208995474165249,-0.0479587903888064603918906,-0.1536207949480650203355481,-0.4546389577911450485814271,0.6445419064999095004608876,-0.5772608479457675967339014,0.2112796067744903971696857,0,0,0,0,0,0,0,0,0
202.6009999999999990905053,2.140837524085339893531454,0.1452467589381326862341126,-0.2484916971526267837067081,-0.3877409462572141696234951,0.5927515074948389584008623,-0.5895023269084854744548352,0.3883163932908645921138202,0,0,0,0,0,0,0,0,0
202.3000000000000113686838,2.158906762335440987499169,0.1890026549975577785378533,-0.2057176274291465656318678,0.341356359365595496413448,-0.5968218916745077207153258,0.6043153359294033410975544,-0.4025946262346810633481198,0,0,0,0,0,0,0,0,0
201.75,2.092454014440702003696515,-0.1404743610623890859301355,-0.1379976813121459588984408,0.5335607761454854713889517,-0.6208433714165280115082624,0.5451577675507860432091434,-0.1807467644467767031724037,0,0,0,0,0,0,0,0,0
201.4499999999999886313162,2.173524369700887248768595,0.214504062524135619138832,-0.3058300937755392134853594,0.3767034013102905642966789,-0.5531945330945882144391135,0.5617728235164817229829737,-0.4862937895713217995030675,0,0,0,0,0,0,0,0,0
201.2009999999999934061634,2.180082319857442829658112,0.1504563437915025225777299,0.03988932580166146268929594,-0.3077894890892362012024819,0.6384059350855706416183466,-0.6367908153072313615083999,0.3036460637741464352323817,0,0,0,0,0,0,0,0,0
200.5509999999999877218215,2.212026250926786730133244,0.1537080660792690400828775,0.04856652676346302072163397,0.3370998472655158950672671,-0.6211885434824859775204686,0.6221852807329502077493544,-0.3367105044513705180975194,0,0,0,0,0,0,0,0,0
200.1999999999999886313162,2.229763842755967395703465,0.1554433237242277277001534,0.05414898240083568237146494,0.3519168548760060466484845,-0.6114941397036898207417721,0.6132239694828990339559027,-0.3552264127279577410334355,0,0,0,0,0,0,0,0,0
199.25,2.254412333532273660097189,0.157731004143273650930368,0.0790598541487803063709805,0.3927261588516690604677706,-0.5833442382348379418033346,0.5874572419180417170991859,-0.4004617949399187359915686,0,0,0,0,0,0,0,0,0
198.9019999999999868123268,2.251411746585644024776229,0.1591558621470427203892228,0.08710714977933073366322958,0.4075386167429469463918679,-0.5724128673776142095519504,0.5761455223756954957536891,-0.4175070221030712791510098,0,0,0,0,0,0,0,0,0
198.5010000000000047748472,2.235002467756113997410239,0.1592847238420809219405783,0.1026632670354159782011294,0.4229581380721606498340748,-0.5602005068527405873268776,0.5648445091219373992430519,-0.4338576748529192617098715,0,0,0,0,0,0,0,0,0
197.7510000000000047748472,2.167081530794644272930327,0.1600052194237270852816835,0.1217444382592109686225257,0.4526870344473682972186168,-0.5361841408470321423962446,0.5407042233334412584255801,-0.4639180445997168056315729,0,0,0,0,0,0,0,0,0
197.0500000000000113686838,2.060087746937966812765808,0.1598270062821919856865804,0.1307076935053426147703703,0.4801828176690812188809332,-0.5134795419944083727514794,0.5159419684674004802360514,-0.4894559355233480402169732,0,0,0,0,0,0,0,0,0
196.6999999999999886313162,1.993151019029495651935235,0.1594980750221696441659702,0.1371007017107890857410268,0.4888740329805622009118338,-0.5057405277393960396636885,0.5078694864081202409167304,-0.4972899294463805075494633,0,0,0,0,0,0,0,0,0
196.3499999999999943156581,1.904460842449219759586754,0.1515874012514187574307556,0.1564050269849261431964749,0.4914436155239649273163138,-0.5068273322500971289628069,0.5079881602261563378064579,-0.4935151977161975622721002,0,0,0,0,0,0,0,0,0
195.6999999999999886313162,1.734331869797622660556158,0.145143638403472718945153,0.1888755171837855351135715,-0.4939607782167846350418472,0.5082005181811969363181447,-0.5079778002289841998262432,0.4895850619717289631260826,0,0,0,0,0,0,0,0,0
195.3499999999999943156581,1.576432157229015862398569,0.1542555785341463148174768,0.2452122297138281947770366,0.4907870604639810174774084,-0.5089814605883948850362231,0.5137187806869201178727735,-0.4859618722046208372233878,0,0,0,0,0,0,0,0,0
195.0509999999999877218215,1.486401559019506768422048,0.1585762841996184169257589,0.2361216238849258297616274,0.4907215863828807700386392,-0.5062081007699719137349348,0.5138600682546945463968768,-0.4887673549909126724521968,0,0,0,0,0,0,0,0,0
194.7510000000000047748472,1.628408460839858795665691,0.01387721958956913970162361,-0.07737525496053354601144747,0.5706412367323010492725643,-0.4744566386121710777068472,0.4620344799160009396921112,-0.485575523015928600667479,0,0,0,0,0,0,0,0,0
194.4499999999999886313162,1.560705331031849940615075,0.1742780758071271474118902,-0.1401013733094555457903141,0.5112445127093897534464872,-0.4755433318551816057606629,0.4707510551385423736014957,-0.539333888326133270574303,0,0,0,0,0,0,0,0,0
194.1510000000000104591891,1.45238388124280182189807,0.2885640663351489720866994,-0.258118927567552058910394,-0.4795279927626091009962295,0.4585721128377742150661334,-0.4668946831985182344126883,0.5846142975675008290892265,0,0,0,0,0,0,0,0,0
193.7510000000000047748472,1.201235733924314708076508,0.2292691769426523085151359,-0.2411215032663785451383376,0.5218629677179225101468774,-0.4525283665525376419758175,0.4533892220210523071877162,-0.563307475342835650700124,0,0,0,0,0,0,0,0,0
193.5,0.8523672212077176846278803,0.1504714505719552397611238,0.2332782424197402393328815,-0.4838353459194448258351429,0.5177876476863607635436892,-0.4992279791352404738624671,0.498568697459929210946683,0,0,0,0,0,0,0,0,0
193.1500000000000056843419,0.7699615218072013433925349,0.154005483149419419852677,0.2912880148348435671579182,-0.4958139704835573535746107,0.5086020707907021876081899,-0.5076137075880940985328493,0.4876687048895123055558543,0,0,0,0,0,0,0,0,0
192.5500000000000113686838,0.759011869780958026154849,0.1458598472352751196368104,0.3174016106492323352483709,0.5031242898018264408932509,-0.5041579221076951666802302,0.5004992750962200531716917,-0.4921292694695288960637924,0,0,0,0,0,0,0,0,0
192.3000000000000113686838,0.7491964774488012457354102,0.1502179543731118060989616,0.3125823247312048414059404,0.5069398546080268186386775,-0.5021368441977813734666825,0.4963549421812465389791669,-0.494471781202174665015292,0,0,0,0,0,0,0,0,0
192.0010000000000047748472,0.7075233059383929656860346,0.1551772312858110125510791,0.3151393093364557862479103,0.5087421194457719675341423,-0.5016697538083157992261363,0.4925176577283659762329648,-0.496925816484649118809358,0,0,0,0,0,0,0,0,0
191.75,0.6532111390815176221735783,0.1530197476796237854301808,0.3077091762027026611292513,0.5108569292727229704809133,-0.5012774715304278982941355,0.4887202597598965247982505,-0.4988974108471143087406574,0,0,0,0,0,0,0,0,0
191.5509999999999877218215,0.6168413835250795562714643,0.153145451731647674886716,0.3015480380419249262224923,0.5122941881558068510926773,-0.5011421901854684612942492,0.4863384523336709008844991,-0.4998860630205813615489774,0,0,0,0,0,0,0,0,0
191.0509999999999877218215,0.5443254559734073128041132,0.1527301971608765185361989,0.3095125171532189245482414,0.5150190843658749573208411,-0.4985223984284833931290848,0.4841646951421924027769705,-0.5018120234229617171450855,0,0,0,0,0,0,0,0,0
190.8000000000000113686838,0.5303688951477421031910353,0.1517987305171909495626892,0.3144738569589746735033486,0.5154806499693568300202173,-0.493060021098621514834548,0.4832682686384845438531954,-0.5075660258102343558306302,0,0,0,0,0,0,0,0,0
190.5509999999999877218215,0.5325066168044922942925723,0.1492570163808485117495906,0.3223591810251196232428583,0.5138967982716265980869252,-0.4772561151316661587351575,0.4857546855825617959645513,-0.5217078477004960523899513,0,0,0,0,0,0,0,0,0
190.3499999999999943156581,0.5283807695872142495829848,0.1491303639795999169681551,0.3295276060281301377941077,0.5205496391826963664684058,-0.4701943237834041999789747,0.4784048847457944564354193,-0.5282747054391020435915038,0,0,0,0,0,0,0,0,0
190.1009999999999990905053,0.5201862246820436741501226,0.1486926623177128314878814,0.3360417295231597489824082,0.5291508921661950415327169,-0.4609478313416122685630683,0.4682919144348686169010421,-0.5368697338694208287535048,0,0,0,0,0,0,0,0,0
189.5509999999999877218215,0.492255830889476053702225,0.1477303859674771457921594,0.3497788617557361368071156,0.5461754738356838778656765,-0.44272475448937687048101,0.4470976754633718130982345,-0.5529835492371538707701006,0,0,0,0,0,0,0,0,0
189.1999999999999886313162,0.4717194369263019160243289,0.1493049412120693031358343,0.3585434214605895397731672,0.5567277064826342547476656,-0.4291876644886276626067456,0.4340810870156550649312521,-0.5634055553795211945811161,0,0,0,0,0,0,0,0,0
188.9000000000000056843419,0.4506626537492756101599412,0.1496122748189508688820837,0.3603466896963968824074698,0.5694255742959234423139492,-0.4139976432945058903989377,0.417869793708599834847206,-0.5742345253400263915821711,0,0,0,0,0,0,0,0,0
188.3000000000000113686838,0.4099252328786934240767437,0.152665328463017196947149,0.3670082190377067510311804,0.5911093483970513151604109,-0.3860198792457503746966552,0.3883489544094937961915548,-0.5922528769127981540520977,0,0,0,0,0,0,0,0,0
187.9499999999999886313162,0.3921691772594761427050969,0.153452392093953060570044,0.3718971031467420695904025,0.5992250245488814908156883,-0.3730764351619166308005049,0.3770477391545016820906255,-0.5996485142240149945891403,0,0,0,0,0,0,0,0,0
187.5999999999999943156581,0.3926951282471518034355995,0.1534780610137032041961902,0.381454176439694259137525,0.6091375257895564887533624,-0.3553234220241905938486582,0.3618096399993851464138572,-0.6097462800221615797369168,0,0,0,0,0,0,0,0,0
187.2510000000000047748472,0.387363892360339412412884,0.1544536946809356159349136,0.3841282123417556482181112,0.6189662049502953067303679,-0.3362300551977036588979786,0.3456780332252212817323311,-0.6199490901708357704080754,0,0,0,0,0,0,0,0,0
186.9499999999999886313162,0.3888078104466070050726501,0.1525509224356298432212498,0.3717681298822892999034195,0.6313913565127949878430513,-0.3134877141887924545393673,0.3216773775824776082643552,-0.6321345319369684467858406,0,0,0,0,0,0,0,0,0
186.6999999999999886313162,0.3659004766312406453643291,0.1532218363504928015927931,0.3755006426126059615455688,0.6339071947846307564233825,-0.3079638870686901563900051,0.31667362961788653175077,-0.6348525240335304298255892,0,0,0,0,0,0,0,0,0
186.4010000000000104591891,0.3392694875616280580921114,0.1522819420865294259836986,0.3667411048111817173378313,0.6395632402723416820577995,-0.2965848213341915617924371,0.3038383004502265838375763,-0.6408420943102681732739256,0,0,0,0,0,0,0,0,0
185.8499999999999943156581,0.277298256431250056408544,0.153494110271001432677096,0.3392897610166000221809668,0.650681959385546182517146,-0.2741717431882805255938251,0.2795091193219226277655309,-0.6506285448839793650321894,0,0,0,0,0,0,0,0,0
185.5999999999999943156581,0.2449947128262519036034917,0.1531773754195878967099276,0.3228345527172569173757211,0.6556849948510306003157666,-0.2643934667385295367303399,0.2682621077859872471549352,-0.6543765726718829833785662,0,0,0,0,0,0,0,0,0
185.3000000000000113686838,0.2050585921213910478577702,0.1550402945339418858683445,0.2998346317102177360780502,0.6612036411005914882110801,-0.25228651879818991821125,0.254345263657105080667975,-0.6591431958425791881595046,0,0,0,0,0,0,0,0,0
185.0500000000000113686838,0.1725499466645353807692231,0.1542609787106130059264331,0.2797562756643212633633766,0.6658141994919554162990494,-0.2430142573299521047136551,0.2420339573659192056176437,-0.6626123293081543907945274,0,0,0,0,0,0,0,0,0
184.8009999999999877218215,0.1431495977258686047584035,0.1551225436865588669377303,0.2594403715020140444025287,0.6699612140400555970742857,-0.2322460017610828431067205,0.2301266194976695766971631,-0.6665249566004229908600109,0,0,0,0,0,0,0,0,0
184.3509999999999990905053,0.09427432086648242226534222,0.1536037608757270245263271,0.2312976074899537048956688,0.6761626527091642024913654,-0.2135304485356865900058665,0.2107510272750167390487519,-0.6728988121946544165297155,0,0,0,0,0,0,0,0,0
184.1510000000000104591891,0.07659336646982006779893482,0.154396345519324046380305,0.2185120242250720712373635,0.6789487316259514848582057,-0.2037322128848186586491664,0.2016933669923849092864288,-0.6759005740671548689846304,0,0,0,0,0,0,0,0,0
183.75,0.04459621821663255908374524,0.154875933449151403920041,0.1976747083499737211997882,0.6838273394362072155061583,-0.1849217084079951278763332,0.1835899965671527744870417,-0.6815268475885987164986091,0,0,0,0,0,0,0,0,0
183.5999999999999943156581,0.03359605091129992671117321,0.1550513748460032592557667,0.1916092650336169711522416,0.6856209025616041285999813,-0.178066354624101280679227,0.1771568738754852878614088,-0.6832508983570866334389393,0,0,0,0,0,0,0,0,0
183.4499999999999886313162,0.02377839952573768816934674,0.1543427917298186846650765,0.1845430127306876832982141,0.6873319813222856788925696,-0.1711807835162336421941376,0.1701045131391129561215791,-0.6850812795627512219454047,0,0,0,0,0,0,0,0,0
183.3009999999999877218215,0.01323071868177239790442812,0.1548680152045935898286189,0.1795101987286639444452163,0.6887985017872066961786004,-0.1645099385934351288174327,0.1638816473486186808816711,-0.686757527181623861345372,0,0,0,0,0,0,0,0,0
183.1500000000000056843419,0.004202836701378297179498844,0.1552168694076376254109562,0.1734581732427994960055173,0.6906135796337223853313958,-0.1568756009418709740366182,0.1569936990431415602120779,-0.688328344686374160588116,0,0,0,0,0,0,0,0,0
183,-0.004162705988069531626294406,0.1549661411001686805999356,0.1677535058171898962875446,0.6920958795472010871563384,-0.1498592310797341731198884,0.150035878557861740434376,-0.6899526954473349515950531,0,0,0,0,0,0,0,0,0
182.8499999999999943156581,-0.01303006431614088522774608,0.155049786462608224502091,0.1625682487524700847725256,0.6936107798007644653637271,-0.1429488951586688483263998,0.1435377919081932684974845,-0.6912789593236624563488135,0,0,0,0,0,0,0,0,0
182.5010000000000047748472,-0.03112491696538253332926516,0.1552843266933988664035837,0.1507388837660834923770636,0.6965315336915396393635547,-0.1268018412881706524775183,0.1281699027002231872085503,-0.6945052829544103856207471,0,0,0,0,0,0,0,0,0
182.1999999999999886313162,-0.0449382505232307702391914,0.1556828530989455561250878,0.1394996629918311414897403,0.6989815429659387291394523,-0.1125948902864448430971578,0.1146903950967585877895871,-0.6968452595729444087879756,0,0,0,0,0,0,0,0,0
182.0500000000000113686838,-0.05058828226368192182427208,0.1556189398607278340236348,0.1325399084590155873719652,0.6999130038618174287634588,-0.1051955542402921994771248,0.1076663415384674221675354,-0.6981859709049470508190893,0,0,0,0,0,0,0,0,0
182,-0.05213280598183726161076734,0.1555183022096204847883882,0.1304835016841374983886936,0.7003077160921299393336881,-0.1028910263727564056157604,0.1053111186510848479302993,-0.6984927354448277059262296,0,0,0,0,0,0,0,0,0
181.75,-0.06235787842462209296101605,0.1556439166374923577240708,0.1194826081897831793199316,0.7018585718437152509707744,-0.09162964652301529289157855,0.09392148631791054358419757,-0.7001266426852104096667517,0,0,0,0,0,0,0,0,0
181.4000000000000056843419,-0.07456148667730004564457857,0.1563604288040073564403087,0.1003958299038340135078684,0.7037595369437803505263673,-0.07514531614417772897862591,0.07789755764432873541558422,-0.7021450364933465859706985,0,0,0,0,0,0,0,0,0
180.6999999999999886313162,-0.09127756710485605828875322,0.1565436679684693577208066,0.05563380690189932697986563,0.7061839782729815162554132,-0.04244236444709132555219711,0.04369115679138473040676871,-0.7054033826015587704816312,0,0,0,0,0,0,0,0,0
